{
    "KPlugin": {
        "Authors": [
            {
                "Email": "plasma-devel@kde.org",
                "Name": "Plasma Team",
                "Name[ar]": "فريق بلازما",
                "Name[az]": "Plasma komandası",
                "Name[ca@valencia]": "L'equip del Plasma",
                "Name[ca]": "L'equip del Plasma",
                "Name[es]": "El equipo de Plasma",
                "Name[fr]": "L'équipe de Plasma",
                "Name[hu]": "A Plasma fejlesztői",
                "Name[ia]": "Equipa de Plasma",
                "Name[it]": "La squadra di Plasma",
                "Name[lt]": "Plasma komanda",
                "Name[nl]": "Team van Plasma",
                "Name[nn]": "Utviklingslaget for Plasma",
                "Name[pl]": "Zespół Plazmy",
                "Name[pt_BR]": "Equipe do Plasma",
                "Name[ru]": "Команда разработчиков Plasma",
                "Name[sl]": "Ekipa Plasme",
                "Name[sv]": "Plasma-gruppen",
                "Name[uk]": "Команда розробників Плазми",
                "Name[vi]": "Đội Plasma",
                "Name[x-test]": "xxPlasma Teamxx",
                "Name[zh_CN]": "Plasma 开发团队"
            }
        ],
        "Description": "Interact with the Plasma desktop shell",
        "Description[ar]": "تفاعل مع صدفة سطح مكتب بلازما",
        "Description[az]": "Plasma İş Masası Mühiti ilə qarşılıqlı əlaqə vasitəsi",
        "Description[ca@valencia]": "Interactua amb l'àrea de treball de l'escriptori Plasma",
        "Description[ca]": "Interactua amb l'àrea de treball de l'escriptori Plasma",
        "Description[es]": "Interactuar con la interfaz del escritorio Plasma",
        "Description[fr]": "Interagir avec le shell du bureau de Plasma",
        "Description[hu]": "Interakció a Plasma asztali héjjal",
        "Description[ia]": "Interage  con le shell de scriptorio de Plasma",
        "Description[it]": "Interagisci con la shell del desktop di Plasma",
        "Description[lt]": "Sąveikauti su Plasma darbalaukio apvalkalu",
        "Description[nl]": "Interactie met de Plasma bureaublad-shell",
        "Description[nn]": "Bruk Plasma-skrivebordsskalet",
        "Description[pl]": "Współdziałanie z powłoką pulpitu Plazmy",
        "Description[pt_BR]": "Interage com a shell da área de trabalho Plasma",
        "Description[ru]": "Инструмент взаимодействия с оболочкой Plasma",
        "Description[sl]": "Uporabljajte Namizno lupino Plasma",
        "Description[sv]": "Interaktion med Plasma skrivbordsskal",
        "Description[uk]": "Взаємодія з оболонкою стільниці Плазма",
        "Description[vi]": "Tương tác với hệ vỏ bàn làm việc Plasma",
        "Description[x-test]": "xxInteract with the Plasma desktop shellxx",
        "Description[zh_CN]": "与 Plasma 桌面外壳进行交互",
        "EnabledByDefault": true,
        "Icon": "plasma",
        "Id": "plasma-desktop",
        "License": "LGPLv2",
        "Name": "Plasma Desktop Shell",
        "Name[ar]": "صدفة سطح مكتب بلازما",
        "Name[az]": "Plasma İş Masası Mühiti",
        "Name[bg]": "Настолна обвивка Plasma",
        "Name[bs]": "Plazma školjka površi",
        "Name[ca@valencia]": "Àrea de treball de l'escriptori Plasma",
        "Name[ca]": "Àrea de treball de l'escriptori Plasma",
        "Name[cs]": "Pracovní plocha Plasma",
        "Name[da]": "Plasma-skrivebordets skal",
        "Name[de]": "Plasma-Umgebung",
        "Name[el]": "Κέλυφος επιφάνειας εργασίας Plasma",
        "Name[en_GB]": "Plasma Desktop Shell",
        "Name[eo]": "Plasma Labortabla ŝelo",
        "Name[es]": "Shell de escritorio Plasma",
        "Name[et]": "Plasma töölauakest",
        "Name[eu]": "Plasma mahaigainaren shell-a",
        "Name[fi]": "Plasma-työpöytäkuori",
        "Name[fr]": "Shell du bureau Plasma",
        "Name[fy]": "Plasma buroblêdflues",
        "Name[ga]": "Blaosc dheisce Plasma",
        "Name[gl]": "Shell de escritorio Plasma",
        "Name[gu]": "પ્લાઝમા ડેસ્કટોપ શેલ",
        "Name[he]": "מעטפת שולחן העבודה של Plasma",
        "Name[hi]": "प्लाज्मा डेस्कटॉप शेल",
        "Name[hr]": "Plasma ljuska radne površine",
        "Name[hu]": "Plazma asztali héj",
        "Name[ia]": "Shell de scriptorio de Plasma",
        "Name[id]": "Shell Desktop Plasma",
        "Name[is]": "Plasma skjáborðsskel",
        "Name[it]": "Shell del desktop di Plasma",
        "Name[ja]": "Plasma デスクトップシェル",
        "Name[kk]": "Plasma үстел ортасы",
        "Name[km]": "សែល​ផ្ទៃតុ​ប្លាស្មា",
        "Name[kn]": "ಪ್ಲಾಸ್ಮಾ ಗಣಕತೆರೆ  ಶೆಲ್",
        "Name[ko]": "Plasma 데스크톱 셸",
        "Name[lt]": "Plasma darbalaukio apvalkalas",
        "Name[lv]": "Plasma darbvirsmas čaula",
        "Name[ml]": "പ്ലാസ്മ പണിയിട ആവരണം",
        "Name[mr]": "प्लाज्मा डेस्कटॉप शेल",
        "Name[nb]": "Plasma skrivebordsskall",
        "Name[nds]": "Plasma-Schriefdischkonsool",
        "Name[nl]": "Plasma Bureaublad-shell",
        "Name[nn]": "Skrivebordsskal for Plasma",
        "Name[pa]": "ਪਲਾਜ਼ਮਾ ਡੈਸਕਟਾਪ ਸ਼ੈੱਲ",
        "Name[pl]": "Powłoka pulpitu Plazmy",
        "Name[pt]": "Consola de Ecrã do Plasma",
        "Name[pt_BR]": "Shell da área de trabalho Plasma",
        "Name[ro]": "Învelișul de birou Plasma",
        "Name[ru]": "Консоль сценариев Plasma",
        "Name[si]": "ප්ලාස්මා වැඩතල ශෙලය",
        "Name[sk]": "Shell plochy Plasma",
        "Name[sl]": "Namizna lupina Plasma",
        "Name[sr@ijekavian]": "Плазмина шкољка површи",
        "Name[sr@ijekavianlatin]": "Plasmina školjka površi",
        "Name[sr@latin]": "Plasmina školjka površi",
        "Name[sr]": "Плазмина шкољка површи",
        "Name[sv]": "Plasma skrivbordskal",
        "Name[ta]": "பணிமேடை பிளாஸ்மா நிரல்",
        "Name[tg]": "Восити мизи кории Плазма",
        "Name[th]": "เชลล์พื้นที่ทำงานแบบพลาสมา",
        "Name[tr]": "Plasma Masaüstü Kabuğu",
        "Name[ug]": "پلازما ئۈستەلئۈستى Shell ئى",
        "Name[uk]": "Оболонка стільниці Плазми",
        "Name[vi]": "Hệ vỏ bàn làm việc Plasma",
        "Name[wa]": "Shell do scribanne Plasma",
        "Name[x-test]": "xxPlasma Desktop Shellxx",
        "Name[zh_CN]": "Plasma 桌面外壳",
        "Name[zh_TW]": "Plasma 桌面 shell"
    }
}
