{
    "KPlugin": {
        "Authors": [
            {
                "Email": "davidedmundson@kde.org",
                "Name": "David Edmundson",
                "Name[ar]": "David Edmundson",
                "Name[az]": "David Edmundson",
                "Name[ca@valencia]": "David Edmundson",
                "Name[ca]": "David Edmundson",
                "Name[es]": "David Edmundson",
                "Name[fr]": "David Edmundson",
                "Name[hu]": "David Edmundson",
                "Name[ia]": "David Edmundson",
                "Name[it]": "David Edmundson",
                "Name[lt]": "David Edmundson",
                "Name[nl]": "David Edmundson",
                "Name[nn]": "David Edmundson",
                "Name[pl]": "David Edmundson",
                "Name[pt_BR]": "David Edmundson",
                "Name[ru]": "David Edmundson",
                "Name[sl]": "David Edmundson",
                "Name[sv]": "David Edmundson",
                "Name[uk]": "David Edmundson",
                "Name[vi]": "David Edmundson",
                "Name[x-test]": "xxDavid Edmundsonxx",
                "Name[zh_CN]": "David Edmundson"
            }
        ],
        "Category": "",
        "Description": "Empty panel",
        "Description[ar]": "لوحة فارغة",
        "Description[az]": "Boş Panel",
        "Description[ca@valencia]": "Plafó buit",
        "Description[ca]": "Plafó buit",
        "Description[es]": "Panel vacío",
        "Description[fr]": "Panneau vide",
        "Description[hu]": "Üres panel",
        "Description[ia]": "Pannello vacue",
        "Description[it]": "Pannello vuoto",
        "Description[lt]": "Tuščias skydelis",
        "Description[nl]": "Leeg paneel",
        "Description[nn]": "Tomt panel",
        "Description[pl]": "Pusty panel",
        "Description[pt_BR]": "Painel vazio",
        "Description[ru]": "Пустая панель",
        "Description[sl]": "Prazna plošča",
        "Description[sv]": "Tom panel",
        "Description[uk]": "Порожня панель",
        "Description[vi]": "Bảng trống",
        "Description[x-test]": "xxEmpty panelxx",
        "Description[zh_CN]": "空面板",
        "EnabledByDefault": true,
        "Id": "org.kde.plasma.desktop.emptyPanel",
        "License": "LGPLv2+",
        "Name": "Empty Panel",
        "Name[ar]": "لوحة فارغة",
        "Name[ast]": "Panel baleru",
        "Name[az]": "Boş Panel",
        "Name[bs]": "Prazan panel",
        "Name[ca@valencia]": "Plafó buit",
        "Name[ca]": "Plafó buit",
        "Name[cs]": "Prázdný panel",
        "Name[da]": "Tomt panel",
        "Name[de]": "Leere Kontrollleiste",
        "Name[el]": "Κενός πίνακας",
        "Name[en_GB]": "Empty Panel",
        "Name[es]": "Panel vacío",
        "Name[et]": "Tühi paneel",
        "Name[eu]": "Panel hutsa",
        "Name[fi]": "Tyhjä paneeli",
        "Name[fr]": "Tableau de bord vide",
        "Name[ga]": "Painéal Folamh",
        "Name[gl]": "Panel baleiro",
        "Name[he]": "לוח ריק",
        "Name[hr]": "Prazan panel",
        "Name[hu]": "Üres panel",
        "Name[ia]": "Pannello vacue",
        "Name[id]": "Panel Kosong",
        "Name[is]": "Autt spjald",
        "Name[it]": "Pannello vuoto",
        "Name[ja]": "空のパネル",
        "Name[kn]": "ಖಾಲಿ ಪುಟೀಪು (ಪ್ಯಾನಲ್)",
        "Name[ko]": "빈 패널",
        "Name[lt]": "Tuščias skydelis",
        "Name[mr]": "रिकामे पटल",
        "Name[nb]": "Tomt panel",
        "Name[nds]": "Leddig Paneel",
        "Name[nl]": "Leeg paneel",
        "Name[nn]": "Tomt panel",
        "Name[pa]": "ਖਾਲੀ ਪੈਨਲ",
        "Name[pl]": "Pusty panel",
        "Name[pt]": "Painel Vazio",
        "Name[pt_BR]": "Painel vazio",
        "Name[ro]": "Panou gol",
        "Name[ru]": "Пустая панель",
        "Name[sk]": "Prázdny panel",
        "Name[sl]": "Prazen pult",
        "Name[sr@ijekavian]": "празан панел",
        "Name[sr@ijekavianlatin]": "prazan panel",
        "Name[sr@latin]": "prazan panel",
        "Name[sr]": "празан панел",
        "Name[sv]": "Tom panel",
        "Name[ta]": "காலியான பலகை",
        "Name[tg]": "Лавҳаи холӣ",
        "Name[tr]": "Boş Panel",
        "Name[uk]": "Порожня панель",
        "Name[vi]": "Bảng trống",
        "Name[x-test]": "xxEmpty Panelxx",
        "Name[zh_CN]": "空面板",
        "Name[zh_TW]": "空白面板",
        "ServiceTypes": [
            "Plasma/LayoutTemplate"
        ],
        "Website": "https://www.kde.org/plasma-desktop"
    },
    "X-Plasma-ContainmentCategories": [
        "panel"
    ],
    "X-Plasma-Shell": "plasmashell"
}
