{
    "KPlugin": {
        "Authors": [
            {
                "Email": "hein@kde.org",
                "Name": "Eike Hein",
                "Name[ar]": "Eike Hein",
                "Name[az]": "Eike Hein",
                "Name[ca@valencia]": "Eike Hein",
                "Name[ca]": "Eike Hein",
                "Name[es]": "Eike Hein",
                "Name[fr]": "Eike Hein",
                "Name[hu]": "Eike Hein",
                "Name[ia]": "Eike Hein",
                "Name[it]": "Eike Hein",
                "Name[lt]": "Eike Hein",
                "Name[nl]": "Eike Hein",
                "Name[nn]": "Eike Hein",
                "Name[pl]": "Eike Hein",
                "Name[pt_BR]": "Eike Hein",
                "Name[ru]": "Eike Hein",
                "Name[sl]": "Eike Hein",
                "Name[sv]": "Eike Hein",
                "Name[uk]": "Eike Hein",
                "Name[vi]": "Eike Hein",
                "Name[x-test]": "xxEike Heinxx",
                "Name[zh_CN]": "Eike Hein"
            }
        ],
        "Category": "Windows and Tasks",
        "Description": "Switch between tasks",
        "Description[ar]": "يبدّل بين المهام",
        "Description[az]": "Tapşırıqlar arası keçid",
        "Description[ca@valencia]": "Commuta entre tasques",
        "Description[ca]": "Commuta entre tasques",
        "Description[es]": "Cambiar entre tareas",
        "Description[fr]": "Basculer entre les tâches",
        "Description[hu]": "Váltás a feladatok között",
        "Description[ia]": "Commuta  inter cargas",
        "Description[it]": "Passa tra le attività",
        "Description[lt]": "Perjungti tarp užduočių",
        "Description[nl]": "Wissel tussen taken",
        "Description[nn]": "Byt mellom oppgåver",
        "Description[pl]": "Skróty programów w ikonach, zadania w paskach",
        "Description[pt_BR]": "Alterna entre tarefas",
        "Description[ru]": "Переключение между выполняемыми приложениями",
        "Description[sl]": "Preklopi med opravili",
        "Description[sv]": "Byt mellan aktiviteter",
        "Description[uk]": "Перемикання між завданнями",
        "Description[vi]": "Chuyển giữa các tác vụ",
        "Description[x-test]": "xxSwitch between tasksxx",
        "Description[zh_CN]": "切换任务",
        "EnabledByDefault": true,
        "Icon": "preferences-system-windows",
        "Id": "org.kde.plasma.taskmanager",
        "License": "GPL-2.0+",
        "Name": "Task Manager",
        "Name[af]": "Taakbestuurder",
        "Name[ar]": "مدير المهام",
        "Name[ast]": "Xestor de xeres",
        "Name[az]": "Tapşırıq Meneceri",
        "Name[be@latin]": "Kiraŭnik zadańniaŭ",
        "Name[be]": "Кіраванне заданнямі",
        "Name[bg]": "Управление на задачи",
        "Name[bn]": "টাস্ক ম্যানেজার",
        "Name[bs]": "Menadžer zadataka",
        "Name[ca@valencia]": "Gestor de tasques",
        "Name[ca]": "Gestor de tasques",
        "Name[cs]": "Správce úloh",
        "Name[csb]": "Menedżer dzejaniów",
        "Name[da]": "Opgavelinje",
        "Name[de]": "Fensterleiste",
        "Name[el]": "Διαχειριστής εργασιών",
        "Name[en_GB]": "Task Manager",
        "Name[eo]": "Taskadministrilo",
        "Name[es]": "Gestor de tareas",
        "Name[et]": "Tegumihaldur",
        "Name[eu]": "Ataza-kudeatzailea",
        "Name[fi]": "Tehtävienhallinta",
        "Name[fr]": "Gestionnaire de tâches",
        "Name[fy]": "Taakbehearder",
        "Name[ga]": "Bainisteoir na dTascanna",
        "Name[gl]": "Xestor de tarefas",
        "Name[gu]": "ટાસ્ક વ્યવસ્થાપક",
        "Name[he]": "מנהל משימות",
        "Name[hi]": "कार्य प्रबंधक",
        "Name[hne]": "काम प्रबंधक",
        "Name[hr]": "Upravljanje zadacima",
        "Name[hsb]": "Rjadowar nadawkow",
        "Name[hu]": "Feladatkezelő",
        "Name[ia]": "Gerente de carga",
        "Name[id]": "Task Manager",
        "Name[is]": "Verkefnastjóri",
        "Name[it]": "Gestore dei processi",
        "Name[ja]": "タスクマネージャ",
        "Name[kk]": "Тапсырмалар менеджері",
        "Name[km]": "កម្មវិធី​គ្រប់គ្រង​ភារកិច្ច",
        "Name[kn]": "ಕಾರ್ಯ ವ್ಯವಸ್ಥಾಪಕ (ಟಾಸ್ಕ್ ಮ್ಯಾನೇಜರ್)",
        "Name[ko]": "작업 관리자",
        "Name[lt]": "Užduočių tvarkytuvė",
        "Name[lv]": "Uzdevumu pārvaldnieks",
        "Name[mk]": "Менаџер на апликации",
        "Name[ml]": "ടാസ്ക് മാനേജര്‍",
        "Name[mr]": "कार्य व्यवस्थापक",
        "Name[nb]": "Oppgavebehandler",
        "Name[nds]": "Opgavenpleger",
        "Name[ne]": "कार्य प्रबन्धक",
        "Name[nl]": "Takenbeheer",
        "Name[nn]": "Oppgåve­handsamar",
        "Name[or]": "କାର୍ଯ୍ୟ ପରିଚାଳକ",
        "Name[pa]": "ਟਾਸਕ ਮੈਨੇਜਰ",
        "Name[pl]": "Paskowy przełącznik zadań",
        "Name[pt]": "Gestor de Tarefas",
        "Name[pt_BR]": "Gerenciador de tarefas",
        "Name[ro]": "Gestionar de sarcini",
        "Name[ru]": "Панель задач",
        "Name[se]": "Bargogieđahalli",
        "Name[si]": "කාර්‍යය කළමණාකරු",
        "Name[sk]": "Správca úloh",
        "Name[sl]": "Upravljalnik opravil",
        "Name[sr@ijekavian]": "менаџер задатака",
        "Name[sr@ijekavianlatin]": "menadžer zadataka",
        "Name[sr@latin]": "menadžer zadataka",
        "Name[sr]": "менаџер задатака",
        "Name[sv]": "Aktivitetshanterare",
        "Name[ta]": "பணி மேலாளர்",
        "Name[te]": "కర్తవ్య నిర్వాహకి",
        "Name[tg]": "Мудири вазифаҳо",
        "Name[th]": "จัดการงาน",
        "Name[tr]": "Görev Yöneticisi",
        "Name[ug]": "ۋەزىپە باشقۇرغۇچ",
        "Name[uk]": "Менеджер задач",
        "Name[uz@cyrillic]": "Вазифа бошқарувчиси",
        "Name[uz]": "Vazifa boshqaruvchisi",
        "Name[vi]": "Trình quản lí tác vụ",
        "Name[wa]": "Manaedjeu des bouyes",
        "Name[x-test]": "xxTask Managerxx",
        "Name[zh_CN]": "任务管理器",
        "Name[zh_TW]": "含描述文字的工作管理員",
        "ServiceTypes": [
            "Plasma/Applet"
        ],
        "Version": "4.0",
        "Website": "https://userbase.kde.org/Plasma/Tasks"
    },
    "X-Plasma-API": "declarativeappletscript",
    "X-Plasma-MainScript": "ui/main.qml",
    "X-Plasma-Provides": [
        "org.kde.plasma.multitasking"
    ]
}
